{
  "$schema": "http://json-schema.org/draft-04/schema#",
  "definitions": {
    "stringVariable": {
      "type": "object",
      "properties": {
        "key": {
          "type": "string"
        },
        "value": {
          "type": "string"
        },
        "unit": {
          "type": "string"
        },
        "editable": {
          "type": "object",
          "$ref": "#/definitions/editable_variable"
        }
      },
      "additionalProperties": false,
      "required": [
        "key",
        "value"
      ]
    },
    "numberVariable": {
      "type": "object",
      "properties": {
        "key": {
          "type": "string"
        },
        "value": {
          "type": "number"
        },
        "unit": {
          "type": "string"
        },
        "editable": {
          "type": "object",
          "$ref": "#/definitions/editable_variable"
        }
      },
      "additionalProperties": false,
      "required": [
        "key",
        "value"
      ]
    },
    "variable": {
      "type": "object",
      "properties": {
        "key": {
          "type": "string"
        },
        "defaultValue": {
          "type": "string"
        },
        "unit": {
          "type": "string"
        },
        "name": {
          "$ref": "#/definitions/locales"
        },
        "description": {
          "$ref": "#/definitions/locales"
        },
        "type": {
          "type": "object"
        }
      },
      "additionalProperties": false,
      "required": [
        "key",
        "defaultValue"
      ]
    },
    "editable_variable": {
      "type": "object",
      "properties": {
        "value": {
          "type": "string"
        },
        "label": {
          "type": "string"
        },
        "orderkey": {
          "type": "integer"
        }
      }
    },
    "editable_onoff": {
      "type": "object",
      "properties": {
        "value": {
          "type": "boolean"
        },
        "label": {
          "type": "string"
        },
        "orderkey": {
          "type": "integer"
        }
      }
    },
    "fixup": {
      "type": "object",
      "properties": {
        "id": {
          "type": "string"
        },
        "name": {
          "$ref": "#/definitions/locales"
        },
        "description": {
          "$ref": "#/definitions/locales"
        },
        "doNotReport": {
          "description": "collection of custom ids that shall not get reported in either the XSLT nor the TEMPLATE report",
          "type": "boolean"
        },
        "variables": {
          "type": "array",
          "items": {
            "oneOf": [
              {
                "$ref": "#/definitions/numberVariable"
              },
              {
                "$ref": "#/definitions/stringVariable"
              }
            ]
          }
        },
        "editable": {
          "type": "object",
          "$ref": "#/definitions/editable_onoff"
        }
      },
      "required": [
        "id"
      ],
      "additionalProperties": false
    },
    "doNotReport": {
      "description": "collection of custom ids that shall not get reported in either the XSLT nor the TEMPLATE report",
      "type": "array",
      "items": {
        "type": "string"
      }
    },
    "ignore": {
      "type": "object",
      "properties": {
        "checks": {
          "type": "array",
          "items": {
            "oneOf": [
              {
                "type": "string"
              }
            ]
          }
        },
        "fixups": {
          "type": "array",
          "items": {
            "oneOf": [
              {
                "type": "string"
              }
            ]
          }
        }
      },
      "additionalProperties": false,
      "required": [
        "checks",
        "fixups"
      ]
    },
    "check": {
      "type": "object",
      "properties": {
        "id": {
          "type": "string"
        },
        "name": {
          "$ref": "#/definitions/locales"
        },
        "description": {
          "$ref": "#/definitions/locales"
        },
        "severity": {
          "enum": [
            1,
            2,
            3
          ]
        },
        "doNotReport": {
          "type": "boolean"
        },
        "variables": {
          "type": "array",
          "items": {
            "oneOf": [
              {
                "$ref": "#/definitions/numberVariable"
              },
              {
                "$ref": "#/definitions/stringVariable"
              }
            ]
          }
        },
        "editable": {
          "type": "object",
          "$ref": "#/definitions/editable_onoff"
        }
      },
      "additionalProperties": false,
      "required": [
        "id"
      ]
    },
    "template": {
      "type": "object",
      "properties": {
        "id": {
          "type": "string"
        },
        "type": {
          "type": "string",
          "enum": [
            "standard",
            "custom"
          ]
        },
        "base": {
          "type": "array",
          "items": {
            "allOf": [
              {
                "type": "string"
              }
            ]
          }
        },
        "name": {
          "type": "string"
        },
        "checks": {
          "type": "array",
          "items": {
            "allOf": [
              {
                "$ref": "#/definitions/check"
              }
            ]
          }
        },
        "fixups": {
          "type": "array",
          "items": {
            "allOf": [
              {
                "$ref": "#/definitions/fixup"
              }
            ]
          }
        },
        "ignore": {
          "type": "object",
          "$ref": "#/definitions/ignore"
        },
        "doNotReport": {
          "type": "array",
          "$ref": "#/definitions/doNotReport"
        }
      },
      "additionalProperties": false,
      "required": [
        "id",
        "type",
        "name",
        "base",
        "checks",
        "fixups"
      ]
    },
    "locales": {
      "type": "object",
      "properties": {
        "en_US": {
          "type": "string"
        },
        "de_DE": {
          "type": "string"
        }
      },
      "required": [
        "en_US"
      ]
    }
  },
  "type": "array",
  "items": {
    "$ref": "#/definitions/template"
  }
}